SP,PRCPLK,EVAPLK,RNF,WTHDRW
1,0.00435,0.00123,0.000456,0
2,0.00436,0.00122,0.000421,0
3,0.00437,0.00121,0.000416,0
4,0.00435,0.00129,0.000512,0
5,0.00439,0.00129,0.000623,0
6,0.00431,0.00122,0.000387,0
7,0.00431,0.00123,0.000467,0
8,0.00432,0.00121,0.000411,0