World_Origin_X, World_Origin_Y, Model_Origin_X, Model_Origin_Y, Angle
270269.121, 9079837.85, 0, 0, 16
74
0.000000
500.000000
1000.000000
1500.000000
2000.000000
2500.000000
3000.000000
3500.000000
4000.000000
4500.000000
5000.000000
5500.000000
6000.000000
6500.000000
7000.000000
7500.000000
8000.000000
8500.000000
9000.000000
9500.000000
10000.000000
10500.000000
10884.750000
11162.100000
11359.500000
11500.000000
11600.000000
11700.000000
11800.000000
11900.000000
12000.000000
12100.000000
12200.000000
12300.000000
12400.000000
12500.000000
12600.000000
12700.000000
12800.000000
12900.000000
13000.000000
13100.000000
13200.000000
13300.000000
13400.000000
13500.000000
13600.000000
13700.000000
13800.000000
13900.000000
14000.000000
14100.000000
14200.000000
14300.000000
14400.000000
14500.000000
14600.000000
14700.000000
14800.000000
14900.000000
15000.000000
15140.500000
15337.900000
15615.250000
16000.000000
16500.000000
17000.000000
17500.000000
18000.000000
18500.000000
19000.000000
19500.000000
20000.000000
20500.000000
21000.000000
145
0.000000
500.000000
1000.000000
1500.000000
2000.000000
2500.000000
3000.000000
3500.000000
4000.000000
4500.000000
5000.000000
5500.000000
6000.000000
6500.000000
7000.000000
7500.000000
8000.000000
8500.000000
9000.000000
9500.000000
10000.000000
10500.000000
11000.000000
11500.000000
12000.000000
12500.000000
13000.000000
13500.000000
14000.000000
14500.000000
15000.000000
15500.000000
16000.000000
16500.000000
17000.000000
17500.000000
18000.000000
18500.000000
19000.000000
19500.000000
20000.000000
20500.000000
20884.750000
21162.100000
21359.500000
21500.000000
21600.000000
21700.000000
21800.000000
21900.000000
22000.000000
22100.000000
22200.000000
22300.000000
22400.000000
22500.000000
22600.000000
22700.000000
22800.000000
22900.000000
23000.000000
23100.000000
23200.000000
23300.000000
23400.000000
23500.000000
23600.000000
23700.000000
23800.000000
23900.000000
24000.000000
24100.000000
24200.000000
24300.000000
24400.000000
24500.000000
24600.000000
24700.000000
24800.000000
24900.000000
25000.000000
25100.000000
25200.000000
25300.000000
25400.000000
25500.000000
25600.000000
25700.000000
25800.000000
25900.000000
26000.000000
26100.000000
26200.000000
26300.000000
26400.000000
26500.000000
26600.000000
26700.000000
26800.000000
26900.000000
27000.000000
27100.000000
27200.000000
27300.000000
27400.000000
27500.000000
27600.000000
27700.000000
27800.000000
27900.000000
28000.000000
28100.000000
28200.000000
28300.000000
28400.000000
28500.000000
28600.000000
28700.000000
28800.000000
28900.000000
29000.000000
29100.000000
29200.000000
29300.000000
29400.000000
29500.000000
29600.000000
29700.000000
29800.000000
29900.000000
30000.000000
30100.000000
30200.000000
30300.000000
30400.000000
30500.000000
30600.000000
30700.000000
30800.000000
30900.000000
31000.000000
31140.500000
31337.900000
31615.250000
32000.000000
32500.000000